/var/www/html/leroy/services/token/src/main/java/com/leroy/token/response/Messages.java
/var/www/html/leroy/services/token/src/main/java/com/leroy/token/controller/TokenController.java
/var/www/html/leroy/services/token/src/main/java/com/leroy/token/service/ITokenService.java
/var/www/html/leroy/services/token/src/main/java/com/leroy/token/response/MessageResponse.java
/var/www/html/leroy/services/token/src/main/java/com/leroy/token/service/TokenService.java
/var/www/html/leroy/services/token/src/main/java/com/leroy/token/Application.java
/var/www/html/leroy/services/token/src/main/java/com/leroy/token/exception/TokenCreationException.java
/var/www/html/leroy/services/token/src/main/java/com/leroy/token/response/ErrorResponse.java
